<?xml version="1.0" encoding="UTF-8" standalone="no"?>
<svg
   xmlns:dc="http://purl.org/dc/elements/1.1/"
   xmlns:cc="http://creativecommons.org/ns#"
   xmlns:rdf="http://www.w3.org/1999/02/22-rdf-syntax-ns#"
   xmlns:svg="http://www.w3.org/2000/svg"
   xmlns="http://www.w3.org/2000/svg"
   version="1.1"
   id="svg2"
   viewBox="0 0 450 450.00001"
   height="450"
   width="450">
  <metadata
     id="metadata7">
    <rdf:RDF>
      <cc:Work
         rdf:about="">
        <dc:format>image/svg+xml</dc:format>
        <dc:type
           rdf:resource="http://purl.org/dc/dcmitype/StillImage" />
        <dc:title></dc:title>
      </cc:Work>
    </rdf:RDF>
  </metadata>
  <g
     transform="translate(0,-602.36216)"
     id="layer1">
    <g
       transform="matrix(1.1814191,0,0,1.1814191,1.719152,603.37593)"
       id="g3418">
      <g
         id="g3378">
        <path
           d="m 153.08,265.057 0.854,73.49 -48.942,0.569 c -10.73,0.122 -19.33,8.925 -19.2,19.655 0.122,10.73 8.925,19.33 19.655,19.2 l 174.577,-2.032 c 10.73,-0.122 19.33,-8.925 19.2,-19.655 -0.122,-10.73 -8.925,-19.33 -19.655,-19.2 l -48.942,0.569 -0.854,-73.434 C 312.912,252.14 356.042,202.157 355.067,117.994 354.571,76.53 345.971,42.455 326.3,4.031 L 324.244,0 l -40.106,0.406 0.845,7.308 0.845,7.308 4.268,36.985 -27.434,70.109 11.177,42.675 L 238.276,122.116 260.63,52.007 245.153,15.428 242.072,8.145 238.991,0.862 50.79,2.788 48.815,6.877 C 30.168,45.504 22.43,79.782 22.909,121.473 23.885,205.897 68.763,254.961 153.08,265.057 Z"
           id="path3380" />
      </g>
      <g
         id="g3382" />
      <g
         id="g3384" />
      <g
         id="g3386" />
      <g
         id="g3388" />
      <g
         id="g3390" />
      <g
         id="g3392" />
      <g
         id="g3394" />
      <g
         id="g3396" />
      <g
         id="g3398" />
      <g
         id="g3400" />
      <g
         id="g3402" />
      <g
         id="g3404" />
      <g
         id="g3406" />
      <g
         id="g3408" />
      <g
         id="g3410" />
    </g>
  </g>
</svg>
