<?xml version="1.0" encoding="UTF-8" standalone="no"?>
<svg
   xmlns:dc="http://purl.org/dc/elements/1.1/"
   xmlns:cc="http://creativecommons.org/ns#"
   xmlns:rdf="http://www.w3.org/1999/02/22-rdf-syntax-ns#"
   xmlns:svg="http://www.w3.org/2000/svg"
   xmlns="http://www.w3.org/2000/svg"
   version="1.1"
   id="svg2"
   viewBox="0 0 850.00001 850.00001"
   height="850"
   width="850">
  <metadata
     id="metadata7">
    <rdf:RDF>
      <cc:Work
         rdf:about="">
        <dc:format>image/svg+xml</dc:format>
        <dc:type
           rdf:resource="http://purl.org/dc/dcmitype/StillImage" />
        <dc:title></dc:title>
      </cc:Work>
    </rdf:RDF>
  </metadata>
  <g
     transform="translate(0,-202.36216)"
     id="layer1">
    <path
       id="path3347"
       d="m 15.142873,841.35564 c 0,-75.72152 0.473852,-137.6965 1.053005,-137.72218 C 24.527799,703.26402 600.71379,625.21873 599.20954,624.66335 598.05123,624.23569 466.42928,606.51486 306.71632,585.28372 147.00335,564.05259 16.059085,546.41163 15.729046,546.08159 15.399006,545.75155 15.290055,483.86928 15.486925,408.56542 L 15.844876,271.64933 427.53881,448.00155 c 226.43165,96.99373 411.70785,176.66889 411.72488,177.05591 0.017,0.38702 -184.92935,79.93693 -410.99194,176.77759 -226.06258,96.84065 -411.49672,176.3264 -412.075872,176.635 -0.579153,0.30858 -1.053005,-61.39289 -1.053005,-137.11441 z"
       />
  </g>
</svg>
