<svg
 xmlns="http://www.w3.org/2000/svg"
 xmlns:xlink="http://www.w3.org/1999/xlink"
 width="102px" height="20px">
<defs>
<filter filterUnits="userSpaceOnUse" id="Filter_0" x="0px" y="0px" width="102px" height="20px"  >
    <feOffset in="SourceAlpha" dx="0.5" dy="0.866" />
    <feGaussianBlur result="blurOut" stdDeviation="1" />
    <feFlood flood-color="rgb(255, 255, 255)" result="floodOut" />
    <feComposite operator="atop" in="floodOut" in2="blurOut" />
    <feComponentTransfer><feFuncA type="linear" slope="1"/></feComponentTransfer>
    <feMerge>
    <feMergeNode/>
    <feMergeNode in="SourceGraphic"/>
  </feMerge>
</filter>

</defs>
<g filter="url(#Filter_0)">
<path fill-rule="evenodd"  fill="rgb(196, 69, 18)"
 d="M97.643,7.760 L94.559,7.760 L95.109,4.680 L98.193,4.680 L97.643,7.760 ZM95.993,17.000 L92.910,17.000 L94.402,8.640 L97.486,8.640 L95.993,17.000 ZM89.086,17.000 L86.001,17.000 L87.499,8.640 C87.543,8.405 87.495,8.200 87.356,8.024 C87.217,7.848 87.023,7.760 86.774,7.760 L86.554,7.760 C86.305,7.760 86.082,7.845 85.884,8.013 C85.686,8.182 85.566,8.391 85.522,8.640 L84.026,17.000 L80.941,17.000 L82.437,8.639 C82.481,8.405 82.434,8.200 82.295,8.024 C82.156,7.848 81.963,7.760 81.715,7.760 L81.496,7.760 C81.248,7.760 81.025,7.845 80.828,8.013 C80.631,8.182 80.511,8.391 80.467,8.641 L78.970,17.000 L75.886,17.000 L77.777,6.440 C77.865,5.956 78.111,5.542 78.514,5.197 C78.917,4.853 79.361,4.680 79.845,4.680 L89.526,4.680 C90.024,4.680 90.413,4.853 90.692,5.197 C90.970,5.542 91.066,5.956 90.978,6.440 L89.086,17.000 ZM70.646,7.760 L71.196,4.680 L74.280,4.680 L73.730,7.760 L70.646,7.760 ZM72.080,17.000 L68.996,17.000 L70.489,8.640 L73.573,8.640 L72.080,17.000 ZM54.590,17.000 C54.106,17.000 53.721,16.828 53.435,16.483 C53.149,16.139 53.050,15.724 53.138,15.240 L54.722,6.440 C54.810,5.956 55.055,5.542 55.458,5.197 C55.861,4.853 56.305,4.680 56.789,4.680 L64.268,4.680 L64.662,2.480 L67.746,2.480 L65.150,17.000 L54.590,17.000 ZM58.444,7.760 C58.194,7.760 57.971,7.848 57.773,8.024 C57.575,8.200 57.455,8.406 57.411,8.641 L56.619,13.041 C56.575,13.275 56.622,13.480 56.761,13.656 C56.901,13.832 57.095,13.920 57.344,13.920 L62.616,13.920 L63.718,7.760 L58.444,7.760 ZM48.815,16.483 C48.411,16.828 47.968,17.000 47.484,17.000 L36.484,17.000 C36.000,17.000 35.615,16.828 35.329,16.483 C35.043,16.139 34.944,15.724 35.032,15.240 L37.320,2.480 L40.405,2.480 L38.511,13.041 C38.467,13.275 38.515,13.480 38.654,13.656 C38.793,13.832 38.987,13.920 39.236,13.920 L45.829,13.920 C46.078,13.920 46.302,13.832 46.500,13.656 C46.697,13.480 46.818,13.274 46.862,13.039 L48.756,2.480 L51.840,2.480 L49.552,15.240 C49.464,15.724 49.218,16.139 48.815,16.483 ZM27.250,9.563 L27.250,17.000 L19.812,17.000 L27.250,9.563 ZM10.250,17.000 L27.250,-0.000 L27.250,6.375 L16.625,17.000 L10.250,17.000 ZM0.688,17.000 L17.687,-0.000 L17.687,6.375 L7.063,17.000 L0.688,17.000 Z"/>
</g>
</svg>