<svg
 xmlns="http://www.w3.org/2000/svg"
 xmlns:xlink="http://www.w3.org/1999/xlink"
 width="317px" height="59px">
<path fill-rule="evenodd"  fill="rgb(255, 255, 255)"
 d="M315.216,29.263 L305.262,29.263 L307.038,19.350 L316.991,19.350 L315.216,29.263 ZM309.890,58.999 L299.938,58.999 L304.755,32.095 L314.709,32.095 L309.890,58.999 ZM287.596,58.999 L277.639,58.999 L282.473,32.094 C282.616,31.339 282.461,30.679 282.012,30.112 C281.562,29.546 280.937,29.263 280.134,29.263 L279.425,29.263 C278.620,29.263 277.899,29.535 277.261,30.077 C276.623,30.620 276.234,31.293 276.092,32.095 L271.263,58.999 L261.308,58.999 L266.138,32.092 C266.279,31.338 266.126,30.679 265.678,30.112 C265.230,29.546 264.606,29.263 263.807,29.263 L263.100,29.263 C262.298,29.263 261.580,29.535 260.943,30.078 C260.308,30.622 259.919,31.296 259.779,32.098 L254.946,58.999 L244.990,58.999 L251.096,25.015 C251.380,23.457 252.173,22.124 253.475,21.014 C254.777,19.906 256.209,19.350 257.770,19.350 L289.015,19.350 C290.624,19.350 291.879,19.906 292.778,21.014 C293.677,22.124 293.985,23.457 293.701,25.015 L287.596,58.999 ZM228.080,29.263 L229.854,19.350 L239.808,19.350 L238.033,29.263 L228.080,29.263 ZM232.708,58.999 L222.755,58.999 L227.573,32.095 L237.526,32.095 L232.708,58.999 ZM176.257,58.999 C174.695,58.999 173.453,58.444 172.529,57.335 C171.606,56.227 171.287,54.892 171.571,53.335 L176.682,25.015 C176.966,23.457 177.758,22.124 179.059,21.014 C180.361,19.906 181.793,19.350 183.356,19.350 L207.495,19.350 L208.765,12.270 L218.719,12.270 L210.339,58.999 L176.257,58.999 ZM188.695,29.263 C187.891,29.263 187.170,29.547 186.532,30.113 C185.893,30.680 185.504,31.342 185.361,32.097 L182.805,46.257 C182.663,47.011 182.817,47.672 183.265,48.238 C183.715,48.804 184.342,49.086 185.145,49.086 L202.162,49.086 L205.717,29.263 L188.695,29.263 ZM157.618,57.335 C156.315,58.444 154.884,58.999 153.322,58.999 L117.819,58.999 C116.257,58.999 115.014,58.444 114.091,57.335 C113.167,56.227 112.848,54.892 113.132,53.335 L120.517,12.270 L130.473,12.270 L124.361,46.257 C124.219,47.011 124.372,47.672 124.822,48.238 C125.271,48.804 125.898,49.086 126.702,49.086 L147.981,49.086 C148.784,49.086 149.505,48.804 150.144,48.236 C150.782,47.669 151.173,47.008 151.315,46.251 L157.426,12.270 L167.381,12.270 L159.997,53.335 C159.713,54.892 158.919,56.227 157.618,57.335 ZM92.457,33.186 L92.457,58.999 L66.569,58.999 L92.457,33.186 ZM33.284,58.999 L92.457,-0.001 L92.457,22.124 L55.474,58.999 L33.284,58.999 ZM-0.000,58.999 L59.172,-0.001 L59.172,22.124 L22.189,58.999 L-0.000,58.999 Z"/>
</svg>